PCBNEW-LibModule-V1  2020-04-03 13:48:38
# encoding utf-8
Units mm
$INDEX
SHDRRA10W64P254_2X5_2050X890X930P
$EndINDEX
$MODULE SHDRRA10W64P254_2X5_2050X890X930P
Po 0 0 0 15 5e8730a6 00000000 ~~
Li SHDRRA10W64P254_2X5_2050X890X930P
Cd 09185107323
Kw Connector
Sc 0
At STD
AR 
Op 0 0 0
T0 0 0 1.27 1.27 0 0.254 N V 21 N "J**"
T1 0 0 1.27 1.27 0 0.254 N I 21 N "SHDRRA10W64P254_2X5_2050X890X930P"
DS -5.42 1.325 15.58 1.325 0.05 24
DS 15.58 1.325 15.58 -12.45 0.05 24
DS 15.58 -12.45 -5.42 -12.45 0.05 24
DS -5.42 -12.45 -5.42 1.325 0.05 24
DS -5.17 -3.3 -5.17 -12.2 0.1 24
DS -5.17 -12.2 15.33 -12.2 0.1 24
DS 15.33 -12.2 15.33 -3.3 0.1 24
DS 15.33 -3.3 -5.17 -3.3 0.1 24
DS -5.17 0 -5.17 -12.2 0.2 21
DS -5.17 -12.2 15.33 -12.2 0.2 21
DS 15.33 -12.2 15.33 -3.3 0.2 21
$PAD
Po 0 0
Sh "1" R 1.65 1.65 0 0 900
Dr 1.1 0 0
At STD N 00E0FFFF
Ne 0 ""
$EndPAD
$PAD
Po 0 -2.54
Sh "2" C 1.65 1.65 0 0 900
Dr 1.1 0 0
At STD N 00E0FFFF
Ne 0 ""
$EndPAD
$PAD
Po 2.54 0
Sh "3" C 1.65 1.65 0 0 900
Dr 1.1 0 0
At STD N 00E0FFFF
Ne 0 ""
$EndPAD
$PAD
Po 2.54 -2.54
Sh "4" C 1.65 1.65 0 0 900
Dr 1.1 0 0
At STD N 00E0FFFF
Ne 0 ""
$EndPAD
$PAD
Po 5.08 0
Sh "5" C 1.65 1.65 0 0 900
Dr 1.1 0 0
At STD N 00E0FFFF
Ne 0 ""
$EndPAD
$PAD
Po 5.08 -2.54
Sh "6" C 1.65 1.65 0 0 900
Dr 1.1 0 0
At STD N 00E0FFFF
Ne 0 ""
$EndPAD
$PAD
Po 7.62 0
Sh "7" C 1.65 1.65 0 0 900
Dr 1.1 0 0
At STD N 00E0FFFF
Ne 0 ""
$EndPAD
$PAD
Po 7.62 -2.54
Sh "8" C 1.65 1.65 0 0 900
Dr 1.1 0 0
At STD N 00E0FFFF
Ne 0 ""
$EndPAD
$PAD
Po 10.16 0
Sh "9" C 1.65 1.65 0 0 900
Dr 1.1 0 0
At STD N 00E0FFFF
Ne 0 ""
$EndPAD
$PAD
Po 10.16 -2.54
Sh "10" C 1.65 1.65 0 0 900
Dr 1.1 0 0
At STD N 00E0FFFF
Ne 0 ""
$EndPAD
$EndMODULE SHDRRA10W64P254_2X5_2050X890X930P
$EndLIBRARY
